…
### National data

To get worldwide time-series data by country (sourced from the WHO),
use:

``` r
nots <- get_national_data()
#> Processing data for who by country
#> Downloading data
#> Cleaning data
#> Processing data
nots
#> # A tibble: 105,492 x 15
#>    date       un_region who_region country        iso_code cases_new cases_total
#>    <date>     <chr>     <chr>      <chr>          <chr>        <dbl>       <dbl>
#>  1 2020-01-03 Asia      EMRO       Afghanistan    AF               0           0
#>  2 2020-01-03 Europe    EURO       Albania        AL               0           0
#>  3 2020-01-03 Africa    AFRO       Algeria        DZ               0           0
#>  4 2020-01-03 Oceania   WPRO       American Samoa AS               0           0
#>  5 2020-01-03 Europe    EURO       Andorra        AD               0           0
#>  6 2020-01-03 Africa    AFRO       Angola         AO               0           0
#>  7 2020-01-03 Americas  AMRO       Anguilla       AI               0           0
#>  8 2020-01-03 Americas  AMRO       Antigua & Bar… AG               0           0
#>  9 2020-01-03 Americas  AMRO       Argentina      AR               0           0
#> 10 2020-01-03 Asia      EURO       Armenia        AM               0           0
#> # … with 105,482 more rows, and 8 more variables: deaths_new <dbl>,
#> #   deaths_total <dbl>, recovered_new <int>, recovered_total <int>,
#> #   hosp_new <int>, hosp_total <int>, tested_new <int>, tested_total <int>
```

This can also be filtered for a country of interest,

``` r
get_national_data(country = "France", verbose = FALSE)
#> # A tibble: 447 x 15
#>    date       un_region who_region country iso_code cases_new cases_total
#>    <date>     <chr>     <chr>      <chr>   <chr>        <dbl>       <dbl>
#>  1 2020-01-03 Europe    EURO       France  FR               0           0
#>  2 2020-01-04 Europe    EURO       France  FR               0           0
#>  3 2020-01-05 Europe    EURO       France  FR               0           0
#>  4 2020-01-06 Europe    EURO       France  FR               0           0
#>  5 2020-01-07 Europe    EURO       France  FR               0           0
#>  6 2020-01-08 Europe    EURO       France  FR               0           0
#>  7 2020-01-09 Europe    EURO       France  FR               0           0
#>  8 2020-01-10 Europe    EURO       France  FR               0           0
#>  9 2020-01-11 Europe    EURO       France  FR               0           0
#> 10 2020-01-12 Europe    EURO       France  FR               0           0
#> # … with 437 more rows, and 8 more variables: deaths_new <dbl>,
#> #   deaths_total <dbl>, recovered_new <int>, recovered_total <int>,
#> #   hosp_new <int>, hosp_total <int>, tested_new <int>, tested_total <int>
```
…
<img src="man/figures/README-g7_plot-1.png" width="100%" />

### Subnational data

To get time-series data for subnational regions of a specific country,
for example by level 1 region in the UK, use:

``` r
uk_nots <- get_regional_data(country = "UK", verbose = FALSE)
uk_nots
#> # A tibble: 5,811 x 26
#>    date       region           ons_region_code cases_new cases_total deaths_new
#>    <date>     <chr>            <chr>               <dbl>       <dbl>      <dbl>
#>  1 2020-01-03 East Midlands    E12000004              NA          NA         NA
#>  2 2020-01-03 East of England  E12000006              NA          NA         NA
#>  3 2020-01-03 England          E92000001              NA          NA         NA
#>  4 2020-01-03 London           E12000007              NA          NA         NA
#>  5 2020-01-03 North East       E12000001              NA          NA         NA
#>  6 2020-01-03 North West       E12000002              NA          NA         NA
#>  7 2020-01-03 Northern Ireland N92000002              NA          NA         NA
#>  8 2020-01-03 Scotland         S92000003              NA          NA         NA
#>  9 2020-01-03 South East       E12000008              NA          NA         NA
#> 10 2020-01-03 South West       E12000009              NA          NA         NA
#> # … with 5,801 more rows, and 20 more variables: deaths_total <dbl>,
#> #   recovered_new <int>, recovered_total <int>, hosp_new <dbl>,
#> #   hosp_total <dbl>, tested_new <dbl>, tested_total <dbl>, areaType <chr>,
#> #   newCasesBySpecimenDate <dbl>, cumCasesBySpecimenDate <dbl>,
#> #   newCasesByPublishDate <dbl>, cumCasesByPublishDate <dbl>,
#> #   newDeaths28DaysByPublishDate <dbl>, cumDeaths28DaysByPublishDate <dbl>,
#> #   newDeaths28DaysByDeathDate <dbl>, cumDeaths28DaysByDeathDate <dbl>,
#> #   newPillarOneTestsByPublishDate <dbl>, newPillarTwoTestsByPublishDate <dbl>,
#> #   newPillarThreeTestsByPublishDate <dbl>,
…
<img src="man/figures/README-uk_plot-1.png" width="100%" />

We can also explore data for level 2 regions (here Upper-tier local
authorities),

``` r
uk_nots_2 <- get_regional_data(country = "UK", level = "2", verbose = FALSE)
uk_nots_2
#> # A tibble: 95,658 x 24
#>    date       authority   ltla_code region ons_region_code cases_new cases_total
#>    <date>     <chr>       <chr>     <chr>  <chr>               <dbl>       <dbl>
#>  1 2020-01-03 Aberdeen C… S12000033 Scotl… S92000003              NA          NA
#>  2 2020-01-03 Aberdeensh… S12000034 Scotl… S92000003              NA          NA
#>  3 2020-01-03 Angus       S12000041 Scotl… S92000003              NA          NA
#>  4 2020-01-03 Antrim and… N09000001 North… N92000002              NA          NA
#>  5 2020-01-03 Ards and N… N09000011 North… N92000002              NA          NA
#>  6 2020-01-03 Argyll and… S12000035 Scotl… S92000003              NA          NA
#>  7 2020-01-03 Armagh Cit… N09000002 North… N92000002              NA          NA
#>  8 2020-01-03 Barking an… E09000002 London E12000007              NA          NA
#>  9 2020-01-03 Barnet      E09000003 London E12000007              NA          NA
#> 10 2020-01-03 Barnsley    E08000016 Yorks… E12000003              NA          NA
#> # … with 95,648 more rows, and 17 more variables: deaths_new <dbl>,
#> #   deaths_total <dbl>, recovered_new <int>, recovered_total <int>,
#> #   hosp_new <int>, hosp_total <int>, tested_new <int>, tested_total <int>,
#> #   areaType <chr>, newCasesBySpecimenDate <dbl>, cumCasesBySpecimenDate <dbl>,
#> #   newCasesByPublishDate <dbl>, cumCasesByPublishDate <dbl>,
#> #   newDeaths28DaysByPublishDate <dbl>, cumDeaths28DaysByPublishDate <dbl>,
#> #   newDeaths28DaysByDeathDate <dbl>, cumDeaths28DaysByDeathDate <dbl>
```
…
