Get supported data sets — get_available_datasets • covidregionaldata
…
    See also

    Data interface functions
CountryDataClass,
DataClass,
get_national_data(),
get_regional_data(),
initialise_dataclass()

    Examples

# see all available datasets
get_available_datasets()
#> # A tibble: 22 x 10
#>    origin   class level_1_region level_2_region level_3_region type  data_urls  
#>    <chr>    <chr> <chr>          <chr>          <chr>          <chr> <chr>      
#>  1 Belgium  Belg… region         province       NA             regi… https://ep…
#>  2 Brazil   Braz… state          city           NA             regi… https://gi…
#>  3 Canada   Cana… province       NA             NA             regi… https://he…
#>  4 Colombia Colo… departamento   NA             NA             regi… https://ra…
#>  5 Covid-1… Covi… country        region         subregion      nati… https://st…
#>  6 Cuba     Cuba  provincia      NA             NA             regi… https://co…
#>  7 Europea… ECDC  country        NA             NA             nati… https://op…
#>  8 France   Fran… region         department     NA             regi… https://ww…
#>  9 Germany  Germ… bundesland     landkreis      NA             regi… https://op…
#> 10 Google   Goog… country        subregion      subregion2     nati… https://st…
#> # … with 12 more rows, and 3 more variables: source_data_cols <chr>,
#> #   source_text <chr>, source_url <chr>
…
# render the data
get_available_datasets(render = TRUE)
#> # A tibble: 22 x 10
#>    origin   class level_1_region level_2_region level_3_region type  data_urls  
#>    <chr>    <chr> <chr>          <chr>          <chr>          <chr> <chr>      
#>  1 Belgium  Belg… region         province       NA             regi… https://ep…
#>  2 Brazil   Braz… state          city           NA             regi… https://gi…
#>  3 Canada   Cana… province       NA             NA             regi… https://he…
#>  4 Colombia Colo… departamento   NA             NA             regi… https://ra…
#>  5 Covid-1… Covi… country        region         subregion      nati… https://st…
#>  6 Cuba     Cuba  provincia      NA             NA             regi… https://co…
#>  7 Europea… ECDC  country        NA             NA             nati… https://op…
#>  8 France   Fran… region         department     NA             regi… https://ww…
#>  9 Germany  Germ… bundesland     landkreis      NA             regi… https://op…
#> 10 Google   Goog… country        subregion      subregion2     nati… https://st…
#> # … with 12 more rows, and 3 more variables: source_data_cols <chr>,
#> #   source_text <chr>, source_url <chr>
…
