ECDC International Case Counts — get_ecdc_cases • NCoVUtils
…
    Arguments

      countries
      Character vector identifying the countries to extract data for.

    Value

    A dataframe of International case counts published by ECDC.

    Examples

## Get data for france
get_ecdc_cases(countries = "France")
#> # A tibble: 79 x 5
#>    date       cases deaths country geoid
#>    <date>     <dbl>  <int> <fct>   <fct>
#>  1 2019-12-31     0      0 France  FR   
#>  2 2020-01-01     0      0 France  FR   
#>  3 2020-01-02     0      0 France  FR   
#>  4 2020-01-03     0      0 France  FR   
#>  5 2020-01-04     0      0 France  FR   
#>  6 2020-01-05     0      0 France  FR   
#>  7 2020-01-06     0      0 France  FR   
#>  8 2020-01-07     0      0 France  FR   
#>  9 2020-01-08     0      0 France  FR   
#> 10 2020-01-09     0      0 France  FR   
#> # … with 69 more rows
…
