Fetch daily COVID cases by state for United States of America — get_us_regional_cases • NCoVUtils
…
      level
      Character String specifying admin level "state", "county", default: "state".

      out
      Character String specifying output data format "timeseries", "total", default: "timeseries".

    Value

    A data.frame of COVID cases by region in the US

    Examples

get_us_regional_cases(level = 'state', out = 'timeseries')
#> # A tibble: 1,664 x 5
#>    date       state      fips  cases deaths
#>    <date>     <chr>      <chr> <dbl>  <dbl>
#>  1 2020-01-21 Washington 53        1      0
#>  2 2020-01-22 Washington 53        1      0
#>  3 2020-01-23 Washington 53        1      0
#>  4 2020-01-24 Illinois   17        1      0
#>  5 2020-01-24 Washington 53        1      0
#>  6 2020-01-25 California 06        1      0
#>  7 2020-01-25 Illinois   17        1      0
#>  8 2020-01-25 Washington 53        1      0
#>  9 2020-01-26 Arizona    04        1      0
#> 10 2020-01-26 California 06        2      0
#> # … with 1,654 more rows
…
