Quick start • covidregionaldata
…
We can take a look at this data by printing it to the console:

all_countries
#> # A tibble: 181,068 × 15
#>    date       un_region who_region country        iso_code cases_new cases_total
#>    <date>     <chr>     <chr>      <chr>          <chr>        <dbl>       <dbl>
#>  1 2020-01-03 Asia      EMRO       Afghanistan    AF               0           0
#>  2 2020-01-03 Europe    EURO       Albania        AL               0           0
#>  3 2020-01-03 Africa    AFRO       Algeria        DZ               0           0
#>  4 2020-01-03 Oceania   WPRO       American Samoa AS               0           0
#>  5 2020-01-03 Europe    EURO       Andorra        AD               0           0
#>  6 2020-01-03 Africa    AFRO       Angola         AO               0           0
#>  7 2020-01-03 Americas  AMRO       Anguilla       AI               0           0
#>  8 2020-01-03 Americas  AMRO       Antigua & Bar… AG               0           0
#>  9 2020-01-03 Americas  AMRO       Argentina      AR               0           0
#> 10 2020-01-03 Asia      EURO       Armenia        AM               0           0
#> # … with 181,058 more rows, and 8 more variables: deaths_new <dbl>,
#> #   deaths_total <dbl>, recovered_new <dbl>, recovered_total <dbl>,
#> #   hosp_new <dbl>, hosp_total <dbl>, tested_new <dbl>, tested_total <dbl>
…
Retrieving total cases and deaths for all countries

Using get_national_data(totals = TRUE) we can obtain total cases and deaths for all nations up to the latest date reported. This is useful to get a snapshot of the current running total for each country. Note how the data is sorted by the total number of cases:

all_countries_totals <- get_national_data(totals = TRUE, verbose = FALSE)
all_countries_totals
#> # A tibble: 236 × 7
#>    country        iso_code cases_total deaths_total recovered_total hosp_total
#>    <chr>          <chr>          <dbl>        <dbl>           <dbl>      <dbl>
#>  1 United States  US          75087972       888113               0          0
#>  2 India          IN          41952717       500055               0          0
#>  3 Brazil         BR          25793685       628960               0          0
#>  4 France         FR          19596336       129042               0          0
#>  5 United Kingdom GB          17607836       157730               0          0
#>  6 Russia         RU          12452765       334039               0          0
#>  7 Turkey         TR          11939804        88064               0          0
#>  8 Italy          IT          11348701       147765               0          0
#>  9 Germany        DE          10671602       118504               0          0
#> 10 Spain          ES          10199716        94040               0          0
#> # … with 226 more rows, and 1 more variable: tested_total <dbl>
…
